{
  "satellites": {
    "kenobi": {
      "distance": 500,
      "message": [
        "",
        "este",
        "es",
        "un",
        "mensaje"
      ]
    },
    "skywalker": {
      "distance": 424,
      "message": [
        "este",
        "",
        "un",
        "mensaje"
      ]
    },
    "sato": {
      "distance": 707,
      "message": [
        "",
        "",
        "es",
        "",
        "mensaje"
      ]
    }
  }
}